{
  "paths": {
    "/refkecamatans": {
      "get": {
        "deprecated": false,
        "description": "",
        "responses": {
          "200": {
            "description": "response",
            "content": {
              "application/json": {
                "schema": {
                  "type": "array",
                  "items": {
                    "$ref": "#/components/schemas/Refkecamatan"
                  }
                }
              }
            }
          },
          "403": {
            "description": "Forbidden",
            "content": {
              "application/json": {
                "schema": {
                  "$ref": "#/components/schemas/Error"
                }
              }
            }
          },
          "404": {
            "description": "Not found",
            "content": {
              "application/json": {
                "schema": {
                  "$ref": "#/components/schemas/Error"
                }
              }
            }
          },
          "default": {
            "description": "unexpected error",
            "content": {
              "application/json": {
                "schema": {
                  "$ref": "#/components/schemas/Error"
                }
              }
            }
          }
        },
        "summary": "",
        "tags": [
          "Refkecamatan"
        ],
        "parameters": [
          {
            "name": "_limit",
            "in": "query",
            "required": false,
            "description": "Maximum number of results possible",
            "schema": {
              "type": "integer"
            },
            "deprecated": false
          },
          {
            "name": "_sort",
            "in": "query",
            "required": false,
            "description": "Sort according to a specific field.",
            "schema": {
              "type": "string"
            },
            "deprecated": false
          },
          {
            "name": "_start",
            "in": "query",
            "required": false,
            "description": "Skip a specific number of entries (especially useful for pagination)",
            "schema": {
              "type": "integer"
            },
            "deprecated": false
          },
          {
            "name": "=",
            "in": "query",
            "required": false,
            "description": "Get entries that matches exactly your input",
            "schema": {
              "type": "string"
            },
            "deprecated": false
          },
          {
            "name": "_ne",
            "in": "query",
            "required": false,
            "description": "Get records that are not equals to something",
            "schema": {
              "type": "string"
            },
            "deprecated": false
          },
          {
            "name": "_lt",
            "in": "query",
            "required": false,
            "description": "Get record that are lower than a value",
            "schema": {
              "type": "string"
            },
            "deprecated": false
          },
          {
            "name": "_lte",
            "in": "query",
            "required": false,
            "description": "Get records that are lower than or equal to a value",
            "schema": {
              "type": "string"
            },
            "deprecated": false
          },
          {
            "name": "_gt",
            "in": "query",
            "required": false,
            "description": "Get records that are greater than a value",
            "schema": {
              "type": "string"
            },
            "deprecated": false
          },
          {
            "name": "_gte",
            "in": "query",
            "required": false,
            "description": "Get records that are greater than  or equal a value",
            "schema": {
              "type": "string"
            },
            "deprecated": false
          },
          {
            "name": "_contains",
            "in": "query",
            "required": false,
            "description": "Get records that contains a value",
            "schema": {
              "type": "string"
            },
            "deprecated": false
          },
          {
            "name": "_containss",
            "in": "query",
            "required": false,
            "description": "Get records that contains (case sensitive) a value",
            "schema": {
              "type": "string"
            },
            "deprecated": false
          }
        ]
      },
      "post": {
        "deprecated": false,
        "description": "Create a new record",
        "responses": {
          "200": {
            "description": "response",
            "content": {
              "application/json": {
                "schema": {
                  "$ref": "#/components/schemas/Refkecamatan"
                }
              }
            }
          },
          "403": {
            "description": "Forbidden",
            "content": {
              "application/json": {
                "schema": {
                  "$ref": "#/components/schemas/Error"
                }
              }
            }
          },
          "404": {
            "description": "Not found",
            "content": {
              "application/json": {
                "schema": {
                  "$ref": "#/components/schemas/Error"
                }
              }
            }
          },
          "default": {
            "description": "unexpected error",
            "content": {
              "application/json": {
                "schema": {
                  "$ref": "#/components/schemas/Error"
                }
              }
            }
          }
        },
        "summary": "",
        "tags": [
          "Refkecamatan"
        ],
        "requestBody": {
          "description": "",
          "required": true,
          "content": {
            "application/json": {
              "schema": {
                "$ref": "#/components/schemas/NewRefkecamatan"
              }
            }
          }
        }
      }
    },
    "/refkecamatans/count": {
      "get": {
        "deprecated": false,
        "description": "",
        "responses": {
          "200": {
            "description": "response",
            "content": {
              "application/json": {
                "schema": {
                  "properties": {
                    "count": {
                      "type": "integer"
                    }
                  }
                }
              }
            }
          },
          "403": {
            "description": "Forbidden",
            "content": {
              "application/json": {
                "schema": {
                  "$ref": "#/components/schemas/Error"
                }
              }
            }
          },
          "404": {
            "description": "Not found",
            "content": {
              "application/json": {
                "schema": {
                  "$ref": "#/components/schemas/Error"
                }
              }
            }
          },
          "default": {
            "description": "unexpected error",
            "content": {
              "application/json": {
                "schema": {
                  "$ref": "#/components/schemas/Error"
                }
              }
            }
          }
        },
        "summary": "",
        "tags": [
          "Refkecamatan"
        ],
        "parameters": []
      }
    },
    "/refkecamatans/{_id}": {
      "get": {
        "deprecated": false,
        "description": "",
        "responses": {
          "200": {
            "description": "response",
            "content": {
              "application/json": {
                "schema": {
                  "$ref": "#/components/schemas/Refkecamatan"
                }
              }
            }
          },
          "403": {
            "description": "Forbidden",
            "content": {
              "application/json": {
                "schema": {
                  "$ref": "#/components/schemas/Error"
                }
              }
            }
          },
          "404": {
            "description": "Not found",
            "content": {
              "application/json": {
                "schema": {
                  "$ref": "#/components/schemas/Error"
                }
              }
            }
          },
          "default": {
            "description": "unexpected error",
            "content": {
              "application/json": {
                "schema": {
                  "$ref": "#/components/schemas/Error"
                }
              }
            }
          }
        },
        "summary": "",
        "tags": [
          "Refkecamatan"
        ],
        "parameters": [
          {
            "name": "_id",
            "in": "path",
            "description": "",
            "deprecated": false,
            "required": true,
            "schema": {
              "type": "string"
            }
          }
        ]
      },
      "put": {
        "deprecated": false,
        "description": "Update a record",
        "responses": {
          "200": {
            "description": "response",
            "content": {
              "application/json": {
                "schema": {
                  "$ref": "#/components/schemas/Refkecamatan"
                }
              }
            }
          },
          "403": {
            "description": "Forbidden",
            "content": {
              "application/json": {
                "schema": {
                  "$ref": "#/components/schemas/Error"
                }
              }
            }
          },
          "404": {
            "description": "Not found",
            "content": {
              "application/json": {
                "schema": {
                  "$ref": "#/components/schemas/Error"
                }
              }
            }
          },
          "default": {
            "description": "unexpected error",
            "content": {
              "application/json": {
                "schema": {
                  "$ref": "#/components/schemas/Error"
                }
              }
            }
          }
        },
        "summary": "",
        "tags": [
          "Refkecamatan"
        ],
        "requestBody": {
          "description": "",
          "required": true,
          "content": {
            "application/json": {
              "schema": {
                "$ref": "#/components/schemas/NewRefkecamatan"
              }
            }
          }
        },
        "parameters": [
          {
            "name": "_id",
            "in": "path",
            "description": "",
            "deprecated": false,
            "required": true,
            "schema": {
              "type": "string"
            }
          }
        ]
      },
      "delete": {
        "deprecated": false,
        "description": "Delete a record",
        "responses": {
          "200": {
            "description": "deletes a single record based on the ID supplied",
            "content": {
              "application/json": {
                "schema": {
                  "type": "integer",
                  "format": "int64"
                }
              }
            }
          },
          "403": {
            "description": "Forbidden",
            "content": {
              "application/json": {
                "schema": {
                  "$ref": "#/components/schemas/Error"
                }
              }
            }
          },
          "404": {
            "description": "Not found",
            "content": {
              "application/json": {
                "schema": {
                  "$ref": "#/components/schemas/Error"
                }
              }
            }
          },
          "default": {
            "description": "unexpected error",
            "content": {
              "application/json": {
                "schema": {
                  "$ref": "#/components/schemas/Error"
                }
              }
            }
          }
        },
        "summary": "",
        "tags": [
          "Refkecamatan"
        ],
        "parameters": [
          {
            "name": "_id",
            "in": "path",
            "description": "",
            "deprecated": false,
            "required": true,
            "schema": {
              "type": "string"
            }
          }
        ]
      }
    }
  },
  "components": {
    "schemas": {
      "Refkecamatan": {
        "required": [
          "id"
        ],
        "properties": {
          "id": {
            "type": "string"
          },
          "kode_kecamatan": {
            "type": "string",
            "default": ""
          },
          "nama_kecamatan": {
            "type": "string",
            "default": ""
          },
          "kota": {
            "required": [
              "id"
            ],
            "properties": {
              "id": {
                "type": "string"
              },
              "kode_kota": {
                "type": "string"
              },
              "nama_kota": {
                "type": "string"
              },
              "provinsi": {
                "type": "string"
              },
              "kecamatan": {
                "type": "string"
              },
              "kelurahan": {
                "type": "string"
              },
              "perusahaan": {
                "type": "string"
              },
              "peserta": {
                "type": "string"
              },
              "klinik": {
                "type": "string"
              },
              "rumahsakit": {
                "type": "string"
              }
            }
          },
          "provinsi": {
            "required": [
              "id"
            ],
            "properties": {
              "id": {
                "type": "string"
              },
              "kode_provinsi": {
                "type": "string"
              },
              "nama_provinsi": {
                "type": "string"
              },
              "kota": {
                "type": "string"
              },
              "kecamatans": {
                "type": "string"
              },
              "kelurahan": {
                "type": "string"
              },
              "perusahaan": {
                "type": "string"
              },
              "peserta": {
                "type": "string"
              },
              "klinik": {
                "type": "string"
              },
              "rumahsakit": {
                "type": "string"
              }
            }
          },
          "kelurahan": {
            "required": [
              "id"
            ],
            "properties": {
              "id": {
                "type": "string"
              },
              "kode_kelurahan": {
                "type": "string"
              },
              "nama_kelurahan": {
                "type": "string"
              },
              "kecamatan": {
                "type": "string"
              },
              "kota": {
                "type": "string"
              },
              "provinsi": {
                "type": "string"
              },
              "perusahaan": {
                "type": "string"
              },
              "peserta": {
                "type": "string"
              },
              "klinik": {
                "type": "string"
              },
              "rumahsakit": {
                "type": "string"
              }
            }
          },
          "perusahaan": {
            "required": [
              "id"
            ],
            "properties": {
              "id": {
                "type": "string"
              },
              "kode_perusahaan": {
                "type": "string"
              },
              "nama_perusahaan": {
                "type": "string"
              },
              "alamat_perusahaan": {
                "type": "string"
              },
              "provinsi": {
                "type": "string"
              },
              "kota": {
                "type": "string"
              },
              "kecamatan": {
                "type": "string"
              },
              "kelurahan": {
                "type": "string"
              },
              "no_telp": {
                "type": "string"
              },
              "tanggal_berdiri": {
                "type": "string"
              },
              "sk_berdiri": {
                "type": "string"
              },
              "bidang_kerja": {
                "type": "string"
              },
              "jumlah_karyawan": {
                "type": "integer"
              },
              "no_npwp": {
                "type": "string"
              },
              "bank_nama": {
                "type": "string"
              },
              "bank_cabang": {
                "type": "string"
              },
              "bank_norek": {
                "type": "string"
              },
              "peserta": {
                "type": "array",
                "items": {
                  "type": "string"
                }
              },
              "transaksis": {
                "type": "array",
                "items": {
                  "type": "string"
                }
              },
              "transaksidetail": {
                "type": "array",
                "items": {
                  "type": "string"
                }
              },
              "user": {
                "type": "string"
              },
              "deleted": {
                "type": "boolean"
              }
            }
          },
          "peserta": {
            "required": [
              "id"
            ],
            "properties": {
              "id": {
                "type": "string"
              },
              "no_ktp": {
                "type": "string"
              },
              "no_bpjs": {
                "type": "string"
              },
              "nama": {
                "type": "string"
              },
              "jenis_kelamin": {
                "type": "string"
              },
              "tempat_lahir": {
                "type": "string"
              },
              "tanggal_lahir": {
                "type": "string"
              },
              "agama": {
                "type": "string"
              },
              "pekerjaan": {
                "type": "string"
              },
              "no_telp": {
                "type": "string"
              },
              "alamat": {
                "type": "string"
              },
              "provinsi": {
                "type": "string"
              },
              "kota": {
                "type": "string"
              },
              "kecamatan": {
                "type": "string"
              },
              "kelurahan": {
                "type": "string"
              },
              "perusahaan": {
                "type": "string"
              },
              "kepala_keluarga_status": {
                "type": "boolean"
              },
              "klinik": {
                "type": "string"
              },
              "rumahsakit": {
                "type": "string"
              },
              "transaksidetail": {
                "type": "array",
                "items": {
                  "type": "string"
                }
              },
              "status_aktif_pekerja": {
                "type": "boolean"
              },
              "status_aktif_program": {
                "type": "boolean"
              },
              "paket": {
                "type": "string"
              },
              "deleted": {
                "type": "boolean"
              }
            }
          },
          "klinik": {
            "required": [
              "id"
            ],
            "properties": {
              "id": {
                "type": "string"
              },
              "kode_klinik": {
                "type": "string"
              },
              "nama_klinik": {
                "type": "string"
              },
              "alamat_klinik": {
                "type": "string"
              },
              "provinsi": {
                "type": "string"
              },
              "kota": {
                "type": "string"
              },
              "kecamatan": {
                "type": "string"
              },
              "kelurahan": {
                "type": "string"
              },
              "no_telp": {
                "type": "string"
              },
              "tanggal_berdiri": {
                "type": "string"
              },
              "sk_berdiri": {
                "type": "string"
              },
              "bank_nama": {
                "type": "string"
              },
              "bank_cabang": {
                "type": "string"
              },
              "bank_norek": {
                "type": "string"
              },
              "no_npwp": {
                "type": "string"
              },
              "peserta": {
                "type": "array",
                "items": {
                  "type": "string"
                }
              },
              "user": {
                "type": "string"
              },
              "deleted": {
                "type": "boolean"
              }
            }
          },
          "rumahsakit": {
            "required": [
              "id"
            ],
            "properties": {
              "id": {
                "type": "string"
              },
              "kode_rumah_sakit": {
                "type": "string"
              },
              "nama_rumah_sakit": {
                "type": "string"
              },
              "alamat_rumah_sakit": {
                "type": "string"
              },
              "provinsi": {
                "type": "string"
              },
              "kota": {
                "type": "string"
              },
              "kecamatan": {
                "type": "string"
              },
              "kelurahan": {
                "type": "string"
              },
              "no_telp": {
                "type": "string"
              },
              "tanggal_berdiri": {
                "type": "string"
              },
              "sk_berdiri": {
                "type": "string"
              },
              "bank_nama": {
                "type": "string"
              },
              "bank_cabang": {
                "type": "string"
              },
              "bank_norek": {
                "type": "string"
              },
              "peserta": {
                "type": "array",
                "items": {
                  "type": "string"
                }
              },
              "user": {
                "type": "string"
              },
              "deleted": {
                "type": "boolean"
              }
            }
          }
        }
      },
      "NewRefkecamatan": {
        "properties": {
          "kode_kecamatan": {
            "type": "string",
            "default": ""
          },
          "nama_kecamatan": {
            "type": "string",
            "default": ""
          },
          "kota": {
            "type": "string"
          },
          "provinsi": {
            "type": "string"
          },
          "kelurahan": {
            "type": "string"
          },
          "perusahaan": {
            "type": "string"
          },
          "peserta": {
            "type": "string"
          },
          "klinik": {
            "type": "string"
          },
          "rumahsakit": {
            "type": "string"
          }
        }
      }
    }
  },
  "tags": [
    {
      "name": "Refkecamatan"
    }
  ]
}