{
  "routes": [
    {
      "method": "GET",
      "path": "/masterakuns",
      "handler": "Masterakun.find",
      "config": {
        "policies": []
      }
    },
    {
      "method": "GET",
      "path": "/masterakuns/count",
      "handler": "Masterakun.count",
      "config": {
        "policies": []
      }
    },
    {
      "method": "GET",
      "path": "/masterakuns/:_id",
      "handler": "Masterakun.findOne",
      "config": {
        "policies": []
      }
    },
    {
      "method": "POST",
      "path": "/masterakuns",
      "handler": "Masterakun.create",
      "config": {
        "policies": []
      }
    },
    {
      "method": "PUT",
      "path": "/masterakuns/:_id",
      "handler": "Masterakun.update",
      "config": {
        "policies": []
      }
    },
    {
      "method": "DELETE",
      "path": "/masterakuns/:_id",
      "handler": "Masterakun.destroy",
      "config": {
        "policies": []
      }
    }
  ]
}