{
  "routes": [
    {
      "method": "GET",
      "path": "/pakets",
      "handler": "Paket.find",
      "config": {
        "policies": []
      }
    },
    {
      "method": "GET",
      "path": "/pakets/count",
      "handler": "Paket.count",
      "config": {
        "policies": []
      }
    },
    {
      "method": "GET",
      "path": "/pakets/:_id",
      "handler": "Paket.findOne",
      "config": {
        "policies": []
      }
    },
    {
      "method": "POST",
      "path": "/pakets",
      "handler": "Paket.create",
      "config": {
        "policies": []
      }
    },
    {
      "method": "PUT",
      "path": "/pakets/:_id",
      "handler": "Paket.update",
      "config": {
        "policies": []
      }
    },
    {
      "method": "DELETE",
      "path": "/pakets/:_id",
      "handler": "Paket.destroy",
      "config": {
        "policies": []
      }
    }
  ]
}