{
  "connection": "default",
  "collectionName": "peserta",
  "info": {
    "name": "peserta",
    "description": ""
  },
  "options": {
    "timestamps": true
  },
  "attributes": {
    "no_ktp": {
      "default": "",
      "type": "string"
    },
    "no_bpjs": {
      "default": "",
      "type": "string"
    },
    "nama": {
      "default": "",
      "type": "string"
    },
    "jenis_kelamin": {
      "default": "",
      "type": "string"
    },
    "tempat_lahir": {
      "default": "",
      "type": "string"
    },
    "tanggal_lahir": {
      "default": "",
      "type": "date"
    },
    "agama": {
      "default": "",
      "type": "string"
    },
    "pekerjaan": {
      "default": "",
      "type": "string"
    },
    "no_telp": {
      "default": "",
      "type": "string"
    },
    "alamat": {
      "default": "",
      "type": "string"
    },
    "provinsi": {
      "model": "refprovinsi",
      "via": "peserta"
    },
    "kota": {
      "model": "refkota",
      "via": "peserta"
    },
    "kecamatan": {
      "model": "refkecamatan",
      "via": "peserta"
    },
    "kelurahan": {
      "model": "refkelurahan",
      "via": "peserta"
    },
    "perusahaan": {
      "model": "perusahaan",
      "via": "peserta"
    },
    "kepala_keluarga_status": {
      "default": false,
      "type": "boolean"
    },
    "klinik": {
      "model": "klinik",
      "via": "peserta"
    },
    "rumahsakit": {
      "model": "rumahsakit",
      "via": "peserta"
    },
    "transaksidetail": {
      "collection": "transaksidetail",
      "via": "peserta"
    },
    "status_aktif_pekerja": {
      "default": false,
      "type": "boolean"
    },
    "status_aktif_program": {
      "default": false,
      "type": "boolean"
    },
    "paket": {
      "model": "paket",
      "via": "peserta"
    },
    "deleted": {
      "default": false,
      "type": "boolean"
    }
  }
}